{
    "prepare_queue": {
        "installed": [],
        "uninstalled": []
    },
    "config_munge": {
        "files": {
            "res/xml/config.xml": {
                "parents": {
                    "/*": [
                        {
                            "xml": "<feature name=\"Whitelist\"><param name=\"android-package\" value=\"org.apache.cordova.whitelist.WhitelistPlugin\" /><param name=\"onload\" value=\"true\" /></feature>",
                            "count": 1
                        },
                        {
                            "xml": "<feature name=\"BluetoothLePlugin\"><param name=\"android-package\" value=\"com.randdusing.bluetoothle.BluetoothLePlugin\" /></feature>",
                            "count": 1
                        },
                        {
                            "xml": "<feature name=\"BLE\"><param name=\"android-package\" value=\"com.evothings.BLE\" /></feature>",
                            "count": 1
                        },
                        {
                            "xml": "<feature name=\"SQLitePlugin\"><param name=\"android-package\" value=\"io.liteglue.SQLitePlugin\" /></feature>",
                            "count": 1
                        },
                        {
                            "xml": "<feature name=\"Notification\"><param name=\"android-package\" value=\"org.apache.cordova.dialogs.Notification\" /></feature>",
                            "count": 1
                        }
                    ],
                    "/widget": [
                        {
                            "xml": "<feature name=\"BLE\"><param name=\"android-package\" value=\"com.megster.cordova.ble.central.BLECentralPlugin\" /></feature>",
                            "count": 1
                        }
                    ]
                }
            },
            "AndroidManifest.xml": {
                "parents": {
                    "/manifest": [
                        {
                            "xml": "<uses-permission android:name=\"android.permission.ACCESS_COARSE_LOCATION\" />",
                            "count": 3
                        },
                        {
                            "xml": "<uses-permission android:name=\"android.permission.BLUETOOTH\" />",
                            "count": 3
                        },
                        {
                            "xml": "<uses-permission android:name=\"android.permission.BLUETOOTH_ADMIN\" />",
                            "count": 3
                        }
                    ]
                }
            }
        }
    },
    "installed_plugins": {
        "cordova-plugin-whitelist": {
            "PACKAGE_NAME": "com.example.xxx"
        },
        "cordova-plugin-bluetoothle": {
            "PACKAGE_NAME": "com.example.xxx"
        },
        "cordova-plugin-compat": {
            "PACKAGE_NAME": "com.example.xxx"
        },
        "cordova-plugin-ble-central": {
            "PACKAGE_NAME": "com.example.xxx"
        },
        "cordova-plugin-ble": {
            "PACKAGE_NAME": "com.example.xxx"
        },
        "cordova-plugin-sqlite": {
            "PACKAGE_NAME": "com.example.xxx"
        },
        "cordova-plugin-dialogs": {
            "PACKAGE_NAME": "com.example.xxx"
        }
    },
    "dependent_plugins": {},
    "modules": [
        {
            "id": "cordova-plugin-bluetoothle.BluetoothLe",
            "file": "plugins/cordova-plugin-bluetoothle/www/bluetoothle.js",
            "pluginId": "cordova-plugin-bluetoothle",
            "clobbers": [
                "window.bluetoothle"
            ]
        },
        {
            "id": "cordova-plugin-ble-central.ble",
            "file": "plugins/cordova-plugin-ble-central/www/ble.js",
            "pluginId": "cordova-plugin-ble-central",
            "clobbers": [
                "ble"
            ]
        },
        {
            "id": "cordova-plugin-ble.BLE",
            "file": "plugins/cordova-plugin-ble/ble.js",
            "pluginId": "cordova-plugin-ble",
            "clobbers": [
                "evothings.ble"
            ]
        },
        {
            "id": "cordova-plugin-sqlite.SQLitePlugin",
            "file": "plugins/cordova-plugin-sqlite/www/SQLitePlugin.js",
            "pluginId": "cordova-plugin-sqlite",
            "clobbers": [
                "window.sqlitePlugin",
                "cordova.plugins.sqlitePlugin"
            ]
        },
        {
            "id": "cordova-plugin-dialogs.notification",
            "file": "plugins/cordova-plugin-dialogs/www/notification.js",
            "pluginId": "cordova-plugin-dialogs",
            "merges": [
                "navigator.notification"
            ]
        },
        {
            "id": "cordova-plugin-dialogs.notification_android",
            "file": "plugins/cordova-plugin-dialogs/www/android/notification.js",
            "pluginId": "cordova-plugin-dialogs",
            "merges": [
                "navigator.notification"
            ]
        }
    ],
    "plugin_metadata": {
        "cordova-plugin-whitelist": "1.3.2",
        "cordova-plugin-bluetoothle": "4.4.0",
        "cordova-plugin-compat": "1.1.0",
        "cordova-plugin-ble-central": "1.1.3",
        "cordova-plugin-ble": "2.0.1",
        "cordova-plugin-sqlite": "1.0.3",
        "cordova-plugin-dialogs": "1.3.3"
    }
}